$MeshFormat
4.1 0 8
$EndMeshFormat
$PhysicalNames
4
1 1 "Inlet"
1 2 "Outlet"
1 3 "Walls"
2 4 "fluid"
$EndPhysicalNames
$Entities
8 6 3 0
1 0 0 0 0 
2 10 0 0 0 
3 10 25 0 0 
4 30 25 0 0 
5 30 10 0 0 
6 20 10 0 0 
7 10 10 0 0 
8 0 25 0 0 
1 0 0 0 10 0 0 1 1 2 1 -2 
2 10 0 0 10 10 0 1 3 2 2 -7 
3 10 10 0 30 10 0 1 3 2 7 -5 
4 30 10 0 30 25 0 1 2 2 5 -4 
5 0 25 0 30 25 0 1 3 2 4 -8 
6 0 0 0 0 25 0 1 3 2 8 -1 
1 0 0 0 30 25 0 1 4 6 5 6 1 2 3 4 
2 0 0 0 30 25 0 0 6 5 6 1 2 3 4 
3 0 0 0 30 25 0 0 6 5 6 1 2 3 4 
$EndEntities
$Nodes
13 723 1 723
0 1 0 1
1
0 0 0
0 2 0 1
2
10 0 0
0 4 0 1
3
30 25 0
0 5 0 1
4
30 10 0
0 7 0 1
5
10 10 0
0 8 0 1
6
0 25 0
1 1 0 9
7
8
9
10
11
12
13
14
15
0.9999999999991893 0 0
1.999999999996827 0 0
2.99999999999391 0 0
3.999999999991027 0 0
4.999999999992411 0 0
5.999999999993932 0 0
6.999999999995455 0 0
7.999999999996978 0 0
8.99999999999849 0 0
1 2 0 9
16
17
18
19
20
21
22
23
24
10 0.9999999999991893 0
10 1.999999999996827 0
10 2.99999999999391 0
10 3.999999999991027 0
10 4.999999999992411 0
10 5.999999999993932 0
10 6.999999999995455 0
10 7.999999999996978 0
10 8.99999999999849 0
1 3 0 19
25
26
27
28
29
30
31
32
33
34
35
36
37
38
39
40
41
42
43
11 10 0
12 10 0
13.00000000000001 10 0
14.00000000000001 10 0
15.00000000000001 10 0
16.00000000000001 10 0
17.00000000000001 10 0
18.00000000000002 10 0
19.00000000000002 10 0
20.00000000000002 10 0
21.00000000000002 10 0
22.00000000000002 10 0
23.00000000000003 10 0
24.00000000000003 10 0
25.00000000000003 10 0
26.00000000000004 10 0
27.00000000000002 10 0
28.00000000000002 10 0
29.00000000000001 10 0
1 4 0 14
44
45
46
47
48
49
50
51
52
53
54
55
56
57
30 10.99999999999681 0
30 11.99999999999362 0
30 12.99999999999043 0
30 13.99999999998714 0
30 14.99999999997271 0
30 15.99999999995767 0
30 16.99999999994264 0
30 17.99999999993945 0
30 18.9999999999481 0
30 19.99999999995675 0
30 20.9999999999654 0
30 21.99999999997405 0
30 22.9999999999827 0
30 23.99999999999135 0
1 5 0 29
58
59
60
61
62
63
64
65
66
67
68
69
70
71
72
73
74
75
76
77
78
79
80
81
82
83
84
85
86
28.99999999999748 25 0
27.99999999999496 25 0
26.99999999999244 25 0
25.99999999998992 25 0
24.9999999999874 25 0
23.99999999998488 25 0
22.99999999998236 25 0
21.99999999998003 25 0
20.99999999998815 25 0
19.99999999999747 25 0
19.00000000000679 25 0
18.00000000001612 25 0
17.00000000002544 25 0
16.00000000003426 25 0
15.0000000000375 25 0
14.00000000003532 25 0
13.0000000000328 25 0
12.00000000003028 25 0
11.00000000002775 25 0
10.00000000002523 25 0
9.000000000022702 25 0
8.000000000020183 25 0
7.000000000017657 25 0
6.000000000015138 25 0
5.000000000012612 25 0
4.00000000001009 25 0
3.000000000007567 25 0
2.000000000005041 25 0
1.000000000002519 25 0
1 6 0 24
87
88
89
90
91
92
93
94
95
96
97
98
99
100
101
102
103
104
105
106
107
108
109
110
0 24.00000000000711 0
0 23.00000000001421 0
0 22.00000000002132 0
0 21.00000000002843 0
0 20.00000000003553 0
0 19.00000000004264 0
0 18.00000000004975 0
0 17.00000000005685 0
0 16.0000000000639 0
0 15.00000000006454 0
0 14.00000000006455 0
0 13.00000000006455 0
0 12.00000000006455 0
0 11.00000000006455 0
0 10.00000000006456 0
0 9.000000000063924 0
0 8.000000000056868 0
0 7.000000000049763 0
0 6.00000000004265 0
0 5.000000000035541 0
0 4.000000000028436 0
0 3.000000000021327 0
0 2.000000000014214 0
0 1.000000000007109 0
2 1 0 613
111
112
113
114
115
116
117
118
119
120
121
122
123
124
125
126
127
128
129
130
131
132
133
134
135
136
137
138
139
140
141
142
143
144
145
146
147
148
149
150
151
152
153
154
155
156
157
158
159
160
161
162
163
164
165
166
167
168
169
170
171
172
173
174
175
176
177
178
179
180
181
182
183
184
185
186
187
188
189
190
191
192
193
194
195
196
197
198
199
200
201
202
203
204
205
206
207
208
209
210
211
212
213
214
215
216
217
218
219
220
221
222
223
224
225
226
227
228
229
230
231
232
233
234
235
236
237
238
239
240
241
242
243
244
245
246
247
248
249
250
251
252
253
254
255
256
257
258
259
260
261
262
263
264
265
266
267
268
269
270
271
272
273
274
275
276
277
278
279
280
281
282
283
284
285
286
287
288
289
290
291
292
293
294
295
296
297
298
299
300
301
302
303
304
305
306
307
308
309
310
311
312
313
314
315
316
317
318
319
320
321
322
323
324
325
326
327
328
329
330
331
332
333
334
335
336
337
338
339
340
341
342
343
344
345
346
347
348
349
350
351
352
353
354
355
356
357
358
359
360
361
362
363
364
365
366
367
368
369
370
371
372
373
374
375
376
377
378
379
380
381
382
383
384
385
386
387
388
389
390
391
392
393
394
395
396
397
398
399
400
401
402
403
404
405
406
407
408
409
410
411
412
413
414
415
416
417
418
419
420
421
422
423
424
425
426
427
428
429
430
431
432
433
434
435
436
437
438
439
440
441
442
443
444
445
446
447
448
449
450
451
452
453
454
455
456
457
458
459
460
461
462
463
464
465
466
467
468
469
470
471
472
473
474
475
476
477
478
479
480
481
482
483
484
485
486
487
488
489
490
491
492
493
494
495
496
497
498
499
500
501
502
503
504
505
506
507
508
509
510
511
512
513
514
515
516
517
518
519
520
521
522
523
524
525
526
527
528
529
530
531
532
533
534
535
536
537
538
539
540
541
542
543
544
545
546
547
548
549
550
551
552
553
554
555
556
557
558
559
560
561
562
563
564
565
566
567
568
569
570
571
572
573
574
575
576
577
578
579
580
581
582
583
584
585
586
587
588
589
590
591
592
593
594
595
596
597
598
599
600
601
602
603
604
605
606
607
608
609
610
611
612
613
614
615
616
617
618
619
620
621
622
623
624
625
626
627
628
629
630
631
632
633
634
635
636
637
638
639
640
641
642
643
644
645
646
647
648
649
650
651
652
653
654
655
656
657
658
659
660
661
662
663
664
665
666
667
668
669
670
671
672
673
674
675
676
677
678
679
680
681
682
683
684
685
686
687
688
689
690
691
692
693
694
695
696
697
698
699
700
701
702
703
704
705
706
707
708
709
710
711
712
713
714
715
716
717
718
719
720
721
722
723
8.500000000021444 24.13397459621337 0
19.50000000000213 24.13397459622363 0
15.47104763513368 24.12281746309577 0
22.49999999999649 10.86602540378936 0
12.49999999999989 10.86602540378501 0
17.49999999999797 10.86602540378654 0
0.8149367178968753 16.48157650176421 0
29.13397459622345 17.49999999994104 0
23.52895236487439 24.12281746309945 0
12.52895236491342 24.1228174630882 0
0.8963598646921869 13.48284565389199 0
5.528952364901696 24.12281746309521 0
0.866025403784437 10.50000000006455 0
9.078275852437105 5.434081473355755 0
9.089298864226489 8.41106337721715 0
0.67984839384139 19.53099471664924 0
0.8885430207113094 6.509201999048581 0
29.15221718678958 14.53159709368923 0
4.499999999991719 0.8660254037837894 0
29.13397459620882 20.49999999996226 0
25.49999999999244 10.86602540378746 0
26.5597323569187 24.05454893970743 0
0.8660254037905936 3.50000000002488 0
6.499999999994694 0.8660254037857565 0
9.256437519923463 3.485468793756046 0
0.9516643956309521 8.390177772062554 0
10.46622224098275 24.15347619449006 0
3.500000000008828 24.13397459621337 0
20.49999999999805 10.86602540378552 0
14.49999999999938 10.86602540378548 0
10.50000000000002 10.86602540378443 0
9.500000000000009 10.86602540378445 0
10.00000000000007 11.73205080756893 0
9.000000000000018 11.7320508075689 0
9.500000000000117 12.59807621135342 0
8.500000000000043 12.59807621135335 0
9.000000000000059 13.46410161513785 0
10.00000000000016 13.46410161513796 0
9.500000000000128 14.33012701892242 0
10.50000000000026 14.33012701892242 0
10.0000000000003 15.19615242270685 0
11.00000000000029 15.19615242270667 0
9.000000000000231 15.19615242270699 0
9.500000000000373 16.0621778264912 0
8.500000000000398 16.06217782649151 0
8.000000000000064 11.73205080756897 0
9.000000000000353 16.9282032302757 0
8.000000000000609 16.92820323027569 0
7.50000000000089 16.06217782649184 0
7.000000000001751 16.92820323027603 0
7.500000000000985 17.79422863405949 0
6.50000000000214 16.06217782649243 0
6.500000000002335 17.7942286340602 0
7.000000000001578 18.6602540378432 0
6.000000000002562 18.66025403784374 0
6.500000000002048 19.52627944162675 0
7.50000000000145 19.52627944162687 0
5.500000000003096 19.52627944162672 0
5.000000000003867 18.66025403784407 0
7.500000000000085 12.59807621135326 0
7.000000000000169 11.73205080756897 0
6.50000000000022 12.59807621135316 0
6.00000000000025 11.73205080756888 0
5.500000000000515 12.59807621135317 0
6.500000000000317 10.86602540378449 0
5.500000000000165 10.86602540378445 0
6.000000000000441 9.999999999999709 0
4.999999999999996 9.999999999999783 0
5.500000000000305 9.133974596214623 0
11.49999999999993 14.33012701892256 0
11.99999999999983 15.19615242270663 0
11.50000000000034 16.06217782649044 0
12.49999999999934 16.06217782649047 0
12.00000000000006 16.92820323027387 0
12.99999999999872 16.92820323027353 0
13.49999999999791 16.06217782649029 0
13.99999999999697 16.92820323027314 0
14.49999999999588 16.06217782649031 0
14.99999999999469 16.92820323027276 0
15.49999999999322 16.06217782649049 0
15.999999999992 16.92820323027243 0
16.49999999999044 16.0621778264903 0
16.99999999998922 16.92820323027224 0
17.49999999998897 16.06217782649017 0
17.99999999998682 16.92820323027236 0
17.49999999998813 17.79422863405438 0
18.4999999999855 17.7942286340546 0
18.99999999998431 16.92820323027165 0
19.49999999998337 17.79422863405773 0
19.99999999998268 16.92820323027233 0
20.49999999998205 17.79422863405833 0
20.99999999998146 16.9282032302721 0
21.49999999997999 17.79422863405849 0
21.99999999998069 16.92820323027125 0
22.49999999997834 17.79422863405705 0
22.99999999997971 16.92820323027122 0
14.49999999999651 17.79422863405572 0
23.49999999997656 17.79422863405642 0
17.99999999998644 18.66025403783677 0
20.9999999999805 18.66025403784279 0
23.96043277428719 16.90535908186826 0
23.49340546236439 16.05837046842179 0
24.59425039053423 17.711959429783 0
24.01570839840194 18.64654250379517 0
20.49999999998296 16.06217782648948 0
24.4527391470684 16.03489176034019 0
15.99999999999206 15.19615242270799 0
23.99102410155745 15.19097018533779 0
24.99999999997783 18.66025403783866 0
24.50261806638209 19.52399418594989 0
12.49999999999966 17.79422863405698 0
21.49999999998409 24.13397459622311 0
17.50000000002078 24.13397459622363 0
12.49999999999937 14.33012701892289 0
0.8772872260538491 21.51688155087146 0
24.98785045835199 15.18913788158051 0
7.000000000001692 20.39230484541098 0
8.00000000000164 20.39230484541099 0
27.49999999999891 10.86602540378428 0
4.499999999999997 10.866025403785 0
4.500000000004659 19.52627944162683 0
25.46906950302981 16.1046499952912 0
25.50043634437981 19.52589856567787 0
25.00050906844618 20.39186049013987 0
24.00052118912207 20.39184991025457 0
4.49999999999886 9.133974596214609 0
4.999999999999918 8.267949192428681 0
4.000000000005502 18.66025403784467 0
5.000000000003626 20.39230484540966 0
24.49647909330259 14.32809422250918 0
23.49791719913033 14.32892451329437 0
25.4946115088657 14.32701597212261 0
3.999999999998129 8.267949192428821 0
4.499999999999087 7.401923788642783 0
5.500000000001378 7.401923788642853 0
5.000000000000387 6.535898384856683 0
2.540211967668044 0.7959225689596819 0
29.13869329012735 22.4918269823648 0
4.000823586268375 6.533495866709881 0
4.503301153393286 5.667645889204219 0
5.500550192234028 5.669501799092899 0
5.000641890938716 4.803414531643366 0
6.00000000000321 4.803847577284414 0
4.004424609266092 4.80122909129848 0
25.99999999997927 18.66025403783749 0
4.000000000005363 20.39230484540963 0
26.00015756879211 20.39216730687329 0
5.500106981825533 3.937749999224576 0
4.500000000005501 17.79422863406174 0
16.99999999998974 18.66025403783636 0
17.49999999998785 19.52627944161803 0
16.49999999999174 19.52627944161782 0
16.99999999999005 20.39230484540224 0
15.99999999999376 20.39230484539936 0
17.99999999998656 20.39230484540729 0
11.50000000000071 17.79422863405752 0
12.00000000000075 18.66025403784118 0
11.0000000000013 18.66025403784154 0
11.50000000000144 19.52627944162523 0
12.50000000000095 19.5262794416249 0
12.00000000000171 20.39230484540919 0
11.00000000000194 20.39230484540978 0
13.00000000000244 20.39230484540562 0
23.99906604872448 13.46356239813522 0
22.99949720796346 13.46381132803659 0
16.49999999999168 21.25833024917998 0
15.49999999999554 21.25833024918023 0
7.500000000001623 21.25833024919561 0
8.500000000001833 21.25833024919555 0
4.500000000004184 21.25833024919245 0
25.50011110619308 21.25823326689525 0
11.5000000000025 21.25833024919394 0
3.499999999997112 9.133974596214829 0
3.500000000007113 17.79422863406245 0
4.00000000000668 16.92820323027989 0
26.4851124944755 21.26691232096789 0
6.500091698709204 5.669811117407881 0
3.500000000005875 21.25833024919254 0
6.492103205564057 9.129415379820268 0
6.500017830308177 3.937810144452886 0
29.10370387504609 12.41327434528674 0
6.000000000000257 13.46410161513719 0
5.000000000000916 13.46410161513724 0
11.99999999999979 13.46410161513867 0
12.99999999999908 13.46410161513902 0
8.500000000001439 19.52627944162667 0
22.49956906783735 14.32987822013592 0
21.99995949063922 13.46407822706261 0
2.999999999996366 8.26794919242899 0
3.000000000007306 20.39230484540961 0
26.92969073180809 20.41590271167085 0
6.000020802025155 3.071782735825789 0
5.000021297309448 3.0717824016849 0
7.000000000005635 3.071796769712791 0
3.000000000008742 16.92820323028075 0
3.500000000007117 16.06217782649887 0
2.500000000009924 17.79422863406325 0
8.495399912093768 0.7714805088663743 0
1.496900844647156 24.06592353182141 0
5.500000000000796 14.33012701892157 0
4.500000000001971 14.33012701892317 0
4.000000000001969 13.46410161513759 0
3.500000000004106 14.33012701892576 0
3.000000000000943 13.46410161513991 0
2.500000000003209 14.33012701893109 0
7.000000000000825 15.19615242270742 0
14.99999999999814 20.39230484539922 0
4.500000000005032 16.06217782649511 0
13.49999999999859 14.3301270189228 0
13.99999999999814 13.46410161513926 0
13.49999999999882 12.59807621135541 0
14.49999999999788 12.5980762113557 0
14.99999999999723 13.46410161513941 0
15.49999999999685 12.59807621135595 0
15.99999999999599 13.46410161513956 0
16.49999999999591 12.59807621135582 0
16.99999999999509 13.46410161513975 0
17.49999999999498 12.59807621135604 0
17.99999999999391 13.46410161514001 0
18.49999999999374 12.5980762113566 0
18.99999999999225 13.46410161514058 0
19.49999999999137 12.5980762113579 0
18.49999999999313 14.3301270189236 0
11.00000000000004 11.7320508075689 0
10.50000000000236 21.25833024919459 0
3.500000000002107 12.59807621135441 0
2.500000000000521 12.59807621135611 0
6.500000000001672 21.258330249195 0
7.00000000000142 22.12435565298037 0
6.000000000000849 22.12435565298039 0
21.4999214264023 14.33008165444683 0
3.000000000002126 11.73205080757063 0
23.4997605427693 12.59793796067581 0
24.49980443190019 12.59796330007871 0
19.49999999999135 14.33012701892384 0
13.50000000000123 19.52627944162175 0
14.49999999999964 21.25833024918041 0
14.99999999999751 22.12435565296185 0
14.00000000000063 22.1243556529618 0
4.000000000004633 22.12435565297544 0
3.000000000006177 22.12435565297568 0
25.99753726676589 22.1257698345612 0
24.99960806214515 22.12457518619598 0
26.90878018883736 22.23677369139635 0
11.00000000000308 22.07438610379659 0
12.00000000000387 22.11602739477887 0
10.0000000000026 22.09641523412877 0
2.520958730757641 9.121874067367548 0
2.517949192437386 16.05181485541997 0
7.482053779291531 3.948183139739962 0
8.944978830179675 10.04088491999525 0
28.53303085742581 24.1421476138218 0
0.829497404151986 1.505932317003533 0
5.500000000003655 2.205771365925742 0
23.99992749576722 11.73200894725206 0
18.99999999999368 11.73205080757354 0
15.99999999999777 11.73205080757062 0
15.99999999999301 18.66025403783631 0
10.50000000000142 17.79422863405796 0
10.00000000000174 18.66025403784192 0
10.00000000000187 20.39230484541041 0
3.003493121791669 9.997983245192749 0
18.9999999999899 15.19615242270698 0
21.99991508236121 15.19610339549572 0
20.99998015283159 13.46409015638285 0
21.49998994057199 12.59807040355136 0
2.020958730768747 11.74415133642069 0
14.46622224096121 22.97087945847096 0
25.49952422147205 22.94068379338353 0
6.533777759044169 22.97087945848958 0
11.47104763511599 22.99320993168343 0
7.500000000002255 22.99038105676559 0
13.52814813253895 22.96762919209278 0
24.5336331396305 22.96263317013124 0
24.00554020028002 22.11976759407962 0
4.500000000001573 2.205771365925024 0
4.00000354955137 3.071794375039788 0
3.499999999999462 2.205771365924399 0
3.00000059158983 3.07179637059888 0
2.518932405361158 2.217101120564889 0
7.93037129983322 3.057389233979171 0
7.500000000006762 2.205771365928063 0
8.440345952478552 2.28531195788931 0
1.858286775612766 9.997983245212842 0
1.855326423380613 3.027517037848555 0
2.499999999996734 3.937822173498206 0
15.46208618884118 23.09062342594982 0
5.537913811172631 23.09062342595351 0
23.538684608421 23.08878994777929 0
23.00737080143405 22.13999245833552 0
22.4999999999762 22.99038105676879 0
22.00122846688595 22.12696178720962 0
22.50143321137025 21.2613707391302 0
21.50022633316608 21.25881040431676 0
21.00024246666107 22.12487003454094 0
20.49999999997912 21.25833024920267 0
20.00004041109534 22.12444138324377 0
22.0002765907396 20.39289161959186 0
19.50000673516841 21.25834453757954 0
19.00000785770231 22.12437232275701 0
20.00000112251166 20.39230722681669 0
20.49999999997931 22.99038105676562 0
1.999999999994191 8.267949192428889 0
2.499999999994962 7.394520947104751 0
13.99932980638129 23.75479305716597 0
3.500000000005598 22.99038105675902 0
2.500000000006471 22.99038105675895 0
1.834264753560894 22.06492870737218 0
1.523980818256857 23.02954583806016 0
7.004021161797927 23.75750161250072 0
24.99999999997908 23.85640646055579 0
1.514531929421824 12.58687093740851 0
1.500437335019569 7.4100022613139 0
1.96978317741221 6.516720015103776 0
1.467139353361438 5.575041454839866 0
2.469303852745404 5.642756130657271 0
0.9690960642512469 11.64483603185417 0
1.978429224854105 4.749886380137658 0
2.993148991751352 6.524721616039924 0
18.49999999998746 21.25833024920422 0
18.00000130960949 22.12435843127916 0
18.49999999998807 22.99038105676454 0
17.4999999999936 22.99038105676457 0
17.00000021826285 22.12435611602502 0
24.99995532126892 11.73202501230698 0
25.49995995885758 12.59805309359518 0
3.002991532078114 15.19442526086852 0
2.021439313185736 15.18377442948429 0
1.517896956699615 14.34943061708466 0
0.9644439494604337 15.30648886678002 0
5.000000000001333 15.19615242270566 0
19.99999999999254 11.73205080757333 0
16.49999999999916 22.99038105676503 0
16.49999999999537 14.33012701892297 0
17.99999999999011 15.19615242270737 0
13.99999999999886 11.7320508075708 0
29.13397459621889 18.49999999993688 0
28.26794919243837 17.99999999993482 0
28.26794919244364 16.99999999993741 0
27.40868704183163 17.48828570181125 0
27.40305099752711 16.49804761691438 0
28.27670900630501 18.99999999994142 0
28.2681370605912 15.99967460277704 0
27.45477858575129 15.48250716036758 0
26.53589838488002 16.99999999992716 0
6.500000000000611 14.33012701892251 0
21.49999999997491 22.99038105676623 0
23.00037183185974 20.39283356690563 0
22.50003938424577 19.52634719525708 0
21.49999999997495 19.52627944163471 0
24.50104827102688 21.25743611612754 0
26.49999999999845 10.86602540378419 0
26.99999999999874 11.73205080756681 0
28.15599321844187 11.81757820513623 0
27.49999999999719 12.59807621134959 0
26.49999332647513 12.59807235838929 0
26.99999888774308 13.4641009729694 0
27.97289001901976 13.4634073206652 0
27.47523675712243 14.42813125126431 0
26.45113708905917 14.32284616911144 0
28.50733241246493 10.84634343945347 0
2.500000000006743 24.1339745962136 0
2.500000000007016 21.25833024919287 0
2.033215597350608 20.41304176958043 0
2.53572252775566 19.54716383432299 0
6.000000000001394 15.19615242270698 0
7.500000000000336 14.33012701892248 0
0.8617196768801955 2.505574892487843 0
12.99999999999952 11.7320508075701 0
3.505953754630847 19.52976017374336 0
3.006946047069891 18.66431489198061 0
2.012647523379703 18.65915159626116 0
1.55873314029811 17.74881590127446 0
2.079418052179711 16.9350416430896 0
19.49999999998422 22.99038105676532 0
27.45206228823778 18.45587566904252 0
26.50232271173547 15.99744211782678 0
25.4849813223714 17.1719204632947 0
28.99031110157356 13.47091692577037 0
29.13476104519514 21.49863783036756 0
28.30786949330317 20.97722559890574 0
28.33916595461842 19.99620426644355 0
28.32276564153222 21.96295793537665 0
28.24520023266905 23.12991296535702 0
15.99368106784799 22.14106279167698 0
17.50000025463801 21.25833078941632 0
18.9999999999829 20.39230484542031 0
19.50000018707049 19.52627983853148 0
0.86602540378768 9.500000000062473 0
29.13400590758123 16.49994576708682 0
13.00000000000022 18.66025403784086 0
13.99999999999896 18.66025403783899 0
17.49999999999275 14.33012701892366 0
11.47587302927777 24.06038459869626 0
4.501256089699336 24.15902058985306 0
23.50320981166314 19.52363690000132 0
5.500000000003814 16.06217782649259 0
5.000000000004752 16.92820323027814 0
15.49999999999384 17.7942286340547 0
25.99999603492436 11.73204851833069 0
25.99095012849613 13.46236503022175 0
12.99999999999884 15.19615242270684 0
1.988131458469717 13.46857534230205 0
6.997027218054076 4.805562089540157 0
7.472133239195232 5.685960071993844 0
6.995370822987356 6.538569256067089 0
7.967197430099113 6.554836361369966 0
7.493761375518504 7.405525263263559 0
8.480064114797736 7.445878763188778 0
7.986277896095221 8.304605802864964 0
9.027334990664365 6.528505639416568 0
8.416222574068044 9.192431477716847 0
6.993602186274757 8.268658679699163 0
8.127350007000354 4.876932807518165 0
19.4999999999968 10.86602540378719 0
7.499800426559715 0.844903573457213 0
18.50000003116626 19.52627950777535 0
19.0000000363624 18.66025411501869 0
20.00000003722628 18.66025411685795 0
13.4999999999985 17.79422863405653 0
10.50000000000066 16.06217782649062 0
13.99999999999719 15.19615242270702 0
14.49999999999694 14.33012701892338 0
21.49999999999761 10.86602540378595 0
21.99999832342143 11.73204983960709 0
0.9401412780675669 4.612975347903689 0
22.50125608966968 24.15902058985883 0
15.49999999999564 14.33012701892328 0
9.494370373516656 24.13722486259293 0
9.034347833355593 23.2516943784373 0
9.982336215456723 23.32801511482585 0
6.500000000005846 2.205771365927175 0
13.49999999999961 10.86602540378523 0
16.4999999999909 17.79422863405435 0
14.99999999999653 18.66025403783695 0
8.500000000000627 17.79422863405936 0
11.49999999999994 10.86602540378469 0
24.99681186169111 13.46284233611044 0
6.497122397464484 7.403087427493024 0
15.49999999999988 10.86602540378436 0
16.49999999999901 10.86602540378511 0
16.99999999999658 11.73205080757078 0
8.49082980502995 10.88195798990565 0
8.000000000000099 13.46410161513779 0
4.000582186964712 9.99966387419877 0
7.000000000000267 13.46410161513773 0
8.500000000000224 14.3301270189225 0
8.000000000000483 15.19615242270712 0
5.998855851899472 6.536465295593405 0
5.000000000000673 11.7320508075693 0
11.00000000000006 13.46410161513811 0
11.50000000000012 12.59807621135415 0
10.5000000000001 12.59807621135358 0
11.9999999999997 11.73205080756983 0
9.000000000001698 20.39230484541086 0
26.49999999998294 22.99038105676953 0
9.500000000002082 21.25367351272012 0
9.138270569642101 4.482694138992313 0
12.50000000000416 21.25694220615578 0
6.000000000002409 20.39230484541027 0
10.50000000000158 19.52627944162588 0
20.4999999999928 24.13397459622363 0
23.00315959904002 18.65753965083738 0
5.499999999992955 0.866025403785551 0
12.4999999999995 12.59807621135453 0
5.9992549887782 8.267832657205465 0
21.00006000551156 20.3924321443104 0
7.000000000000781 9.999999999999975 0
9.500000000001211 19.5262794416264 0
7.498471634171857 10.87779926759327 0
14.99999999999844 11.73205080757048 0
24.49998046950297 10.86601412785785 0
23.50271425084884 21.26054173080551 0
4.500866388148353 3.937298762064634 0
16.99999999999027 15.19615242270766 0
4.500000000001527 12.59807621135357 0
16.49874391033924 24.15902058986088 0
7.966222240961365 22.10485405470569 0
8.971129074297883 22.21921304557124 0
9.000000000001986 18.66025403784224 0
11.00000000000075 16.92820323027415 0
27.62011233177493 24.09235520905401 0
0.9890884853640685 20.46603630262642 0
20.99999804399494 11.73204967827742 0
9.500000000001787 17.79422863405835 0
26.43547253831662 19.55191278723696 0
18.50000000001146 24.13397459622363 0
8.000000000001343 18.66025403784297 0
22.49986758422581 12.59799976108606 0
3.499999999992468 0.8660254037819224 0
3.499999999997211 7.401923788642896 0
10.00000000000101 16.92820323027461 0
22.99783701347491 15.19490362186562 0
15.49999999999582 19.52627944161783 0
14.99999999999515 15.19615242270708 0
17.99999999999557 11.73205080757238 0
21.49998584704529 16.06216965528733 0
4.000000000001178 11.73205080756976 0
3.501486069287889 3.936949600738045 0
5.500000000003955 17.79422863406089 0
5.500000000002527 21.25833024919345 0
4.000498588682945 15.19586456240285 0
3.500679218126966 10.8656332570173 0
20.99997039262783 15.19613532889146 0
12.52355251906665 23.06108992764165 0
29.14730402555852 19.49936737769815 0
22.4985239008677 16.06132560026882 0
2.50000000000212 10.86602540378689 0
20.50001022537923 19.52630113433233 0
5.006318968531289 22.14106271450887 0
6.000000000003579 16.92820323027694 0
18.49999999998722 16.06217782649 0
14.50000000000033 19.52627944161849 0
19.49999999998501 16.06217782648991 0
4.500000000002913 22.99038105675802 0
19.99999669213042 13.46409970534844 0
18.49999999999711 10.8660254037878 0
20.49997811066179 14.33011438111643 0
29.13705155790162 15.50520291057327 0
20.49999413825213 12.59807282708188 0
19.99999141720647 15.19614746743635 0
14.00000000000128 20.39230484540129 0
13.50000000000278 21.25809890867828 0
22.0005331638666 18.65981293228125 0
13.0086167752695 22.13069054705153 0
28.26794919244776 14.99999999995615 0
22.99992565769491 11.73200788603516 0
23.49997227049361 10.86600939415573 0
2.995437848373362 4.787926054058437 0
25.94310452501699 15.16804764327504 0
3.512585827723599 5.65909937033816 0
0.8866239199070052 18.54499820604137 0
27.4331834804116 19.51728495155065 0
7.967187012804233 10.01661549217682 0
7.469247504155636 9.139001565133089 0
29.19747892877541 23.50530612565771 0
29.16957939544476 11.49130217274374 0
1.559066101386657 0.9385434397723516 0
9.109333425264323 1.532617358791426 0
26.44424242147497 17.94185331703483 0
27.3486308366049 23.21185297978189 0
27.47987406428278 21.4085388940366 0
0.8211542852697589 22.46229395905555 0
1.619468829957979 2.000000000014551 0
0.7572917280768197 23.48577334798478 0
1.61144916167283 16.08893567467184 0
8.440392058326923 3.79391347942668 0
1.616832329177613 3.965899600220349 0
1.639387061156646 9.05559685542686 0
1.642873394883863 10.95059920346783 0
0.6955234963660347 17.50000000005329 0
9.304476503635238 2.499999999995368 0
1.646771212467287 21.14384371592867 0
8.334458303879233 5.81606327073086 0
0.6759975716730517 12.54291052465675 0
9.330127018926731 7.499999999996213 0
0.6694189955482378 7.490076115852205 0
2.999999999993911 1.535898384852185 0
8.007479952735002 1.529330524965538 0
7.000619079876484 1.533543819364186 0
3.999999999997037 1.535898384854493 0
6.000103179979453 1.535505957274675 0
5.000017196661064 1.535832980258212 0
28.32596189432367 12.69855715850848 0
25.50469482686754 18.02924825715774 0
1.681119569152785 19.63084887362716 0
0.6591647304280628 5.539443760374064 0
28.3774047358358 14.18958256226543 0
0.6895825623133018 14.43958256232755 0
14.78476468041366 23.69309986253866 0
8.294838765732795 23.0732523337659 0
7.770503831298547 23.69538503319571 0
25.70929506647633 24.28135899106334 0
24.22025402257821 23.69288778657628 0
6.215714029350009 23.69348679901985 0
13.21218799020777 23.68841646757487 0
10.7843065731952 23.42793816650542 0
0.7320508075733034 0.7320508075754253 0
29.26794919242907 10.73205080757005 0
9.273715243363281 9.283808928621916 0
29.26794919243029 24.26794919242859 0
26.75363587905983 15.06719372371771 0
9.27304073544571 0.726959264553654 0
0.7250687567215472 24.27493124328103 0
24.76259664583307 16.79113833984991 0
27.67691453623362 22.499999999976 0
2.053148774626246 23.56067395918676 0
3.000000000005982 23.56217782648618 0
21.99999999997407 23.56217782649062 0
20.9999999999786 23.56217782649033 0
19.99999999999064 23.56217782649514 0
18.99999999999877 23.56217782649609 0
4.000000000004867 23.56217782648479 0
22.9515250449071 23.56802423171572 0
18.00000000000647 23.5621778264964 0
17.00000000002614 23.56217782650597 0
4.951484915959104 23.56811968558933 0
16.04851508406893 23.5681196856086 0
9.551427172175966 22.70162615349232 0
11.99985638709346 23.55937548027739 0
13.52044814301047 24.38252212355421 0
10.48719130199127 22.71960944524701 0
14.48091753955966 24.37856069730589 0
6.521146901037058 24.38318359352795 0
24.34984127748079 24.3344223420463 0
7.487589400776894 24.3953621954695 0
25.85371032896582 23.62467584829592 0
26.72806791304688 18.81725410142964 0
2.247535860873549 1.497493102832732 0
27.72798536378946 20.49999999996272 0
1.313953452545568 17.03751038131606 0
8.690795445989551 2.96975354340855 0
25.95810952327885 16.60507116286927 0
$EndNodes
$Elements
7 1444 1 1444
1 1 1 10
1 1 7 
2 7 8 
3 8 9 
4 9 10 
5 10 11 
6 11 12 
7 12 13 
8 13 14 
9 14 15 
10 15 2 
1 2 1 10
11 2 16 
12 16 17 
13 17 18 
14 18 19 
15 19 20 
16 20 21 
17 21 22 
18 22 23 
19 23 24 
20 24 5 
1 3 1 20
21 5 25 
22 25 26 
23 26 27 
24 27 28 
25 28 29 
26 29 30 
27 30 31 
28 31 32 
29 32 33 
30 33 34 
31 34 35 
32 35 36 
33 36 37 
34 37 38 
35 38 39 
36 39 40 
37 40 41 
38 41 42 
39 42 43 
40 43 4 
1 4 1 15
41 4 44 
42 44 45 
43 45 46 
44 46 47 
45 47 48 
46 48 49 
47 49 50 
48 50 51 
49 51 52 
50 52 53 
51 53 54 
52 54 55 
53 55 56 
54 56 57 
55 57 3 
1 5 1 30
56 3 58 
57 58 59 
58 59 60 
59 60 61 
60 61 62 
61 62 63 
62 63 64 
63 64 65 
64 65 66 
65 66 67 
66 67 68 
67 68 69 
68 69 70 
69 70 71 
70 71 72 
71 72 73 
72 73 74 
73 74 75 
74 75 76 
75 76 77 
76 77 78 
77 78 79 
78 79 80 
79 80 81 
80 81 82 
81 82 83 
82 83 84 
83 84 85 
84 85 86 
85 86 6 
1 6 1 25
86 6 87 
87 87 88 
88 88 89 
89 89 90 
90 90 91 
91 91 92 
92 92 93 
93 93 94 
94 94 95 
95 95 96 
96 96 97 
97 97 98 
98 98 99 
99 99 100 
100 100 101 
101 101 102 
102 102 103 
103 103 104 
104 104 105 
105 105 106 
106 106 107 
107 107 108 
108 108 109 
109 109 110 
110 110 1 
2 1 2 1334
111 642 482 676 
112 117 95 440 
113 126 642 676 
114 494 362 592 
115 291 464 647 
116 494 592 651 
117 124 524 568 
118 488 455 650 
119 464 291 674 
120 488 650 675 
121 395 133 478 
122 394 123 499 
123 100 123 427 
124 225 418 653 
125 428 425 536 
126 413 136 423 
127 519 125 520 
128 524 124 664 
129 117 440 656 
130 132 566 651 
131 395 478 654 
132 95 96 440 
133 536 425 677 
134 418 225 663 
135 99 100 427 
136 540 111 681 
137 681 111 682 
138 592 132 651 
139 423 136 667 
140 125 519 666 
141 123 394 660 
142 394 499 659 
143 427 123 660 
144 121 422 513 
145 21 22 521 
146 423 127 424 
147 474 593 676 
148 418 419 653 
149 652 493 696 
150 454 469 636 
151 424 127 425 
152 520 125 522 
153 124 21 521 
154 439 121 513 
155 133 395 658 
156 464 471 647 
157 489 468 674 
158 354 652 696 
159 483 482 642 
160 649 393 669 
161 362 494 646 
162 566 354 651 
163 593 126 676 
164 308 649 669 
165 469 454 692 
166 644 578 645 
167 363 648 654 
168 390 395 654 
169 593 474 663 
170 419 309 655 
171 568 524 657 
172 414 429 601 
173 136 413 659 
174 397 113 680 
175 381 504 687 
176 589 540 681 
177 122 398 685 
178 119 399 684 
179 120 615 686 
180 62 421 683 
181 651 354 696 
182 424 425 426 
183 428 396 639 
184 468 489 678 
185 426 639 641 
186 426 428 639 
187 291 489 674 
188 429 249 601 
189 414 424 429 
190 491 493 652 
191 213 488 675 
192 88 653 655 
193 429 426 641 
194 654 648 719 
195 522 644 645 
196 487 232 640 
197 488 213 695 
198 426 425 428 
199 424 426 429 
200 422 121 665 
201 521 22 666 
202 127 423 667 
203 232 488 695 
204 428 536 658 
205 470 242 511 
206 511 242 548 
207 466 436 510 
208 436 435 510 
209 435 131 510 
210 39 131 582 
211 131 435 582 
212 265 430 496 
213 263 265 496 
214 276 434 495 
215 443 397 495 
216 199 201 529 
217 203 205 634 
218 337 314 513 
219 434 443 495 
220 434 276 496 
221 436 466 511 
222 37 38 638 
223 492 452 616 
224 436 511 548 
225 430 265 497 
226 315 313 437 
227 313 311 612 
228 535 376 594 
229 315 437 438 
230 210 460 619 
231 437 313 612 
232 208 214 573 
233 276 263 496 
234 498 497 527 
235 38 39 582 
236 498 528 529 
237 497 265 527 
238 498 527 528 
239 528 199 529 
240 534 535 594 
241 201 210 529 
242 615 356 635 
243 447 52 616 
244 529 210 619 
245 452 447 616 
246 422 337 513 
247 318 441 507 
248 314 315 513 
249 34 139 525 
250 139 442 525 
251 235 458 506 
252 315 438 439 
253 376 535 599 
254 458 459 506 
255 503 445 585 
256 205 573 634 
257 32 33 627 
258 235 461 583 
259 445 194 585 
260 214 506 573 
261 449 453 500 
262 205 208 573 
263 311 441 612 
264 307 482 483 
265 458 235 583 
266 38 582 638 
267 430 431 496 
268 259 285 508 
269 33 34 525 
270 441 476 507 
271 431 434 496 
272 307 481 482 
273 139 534 594 
274 359 305 484 
275 367 550 551 
276 210 203 634 
277 284 238 481 
278 442 594 630 
279 140 550 581 
280 441 310 476 
281 310 456 476 
282 442 139 594 
283 307 284 481 
284 444 217 538 
285 367 551 552 
286 140 446 543 
287 550 367 581 
288 479 115 543 
289 456 316 476 
290 441 318 612 
291 444 503 585 
292 207 502 530 
293 446 140 581 
294 285 318 508 
295 446 479 543 
296 102 103 136 
297 402 401 457 
298 235 234 461 
299 383 615 635 
300 42 43 471 
301 33 525 627 
302 85 309 472 
303 316 456 477 
304 533 538 605 
305 551 116 552 
306 409 430 497 
307 109 363 478 
308 238 480 481 
309 300 473 474 
310 462 229 463 
311 41 229 462 
312 502 501 530 
313 552 116 606 
314 300 288 473 
315 130 491 492 
316 130 492 616 
317 507 162 621 
318 411 409 497 
319 432 410 485 
320 123 101 499 
321 101 102 499 
322 46 47 489 
323 204 607 617 
324 449 451 453 
325 467 470 511 
326 115 479 564 
327 523 289 576 
328 445 373 622 
329 130 490 491 
330 493 248 494 
331 466 467 511 
332 71 72 113 
333 64 65 537 
334 305 307 484 
335 506 459 573 
336 234 281 461 
337 238 231 480 
338 462 463 510 
339 467 465 468 
340 259 508 610 
341 217 444 585 
342 463 466 510 
343 502 207 545 
344 102 136 499 
345 242 240 548 
346 538 217 605 
347 240 274 548 
348 406 405 407 
349 463 464 465 
350 439 438 440 
351 407 405 412 
352 453 451 454 
353 501 221 530 
354 130 54 490 
355 622 373 624 
356 224 319 512 
357 328 326 552 
358 410 407 485 
359 277 276 495 
360 590 296 598 
361 85 86 309 
362 404 402 405 
363 128 629 636 
364 109 110 363 
365 394 372 618 
366 326 367 552 
367 307 483 484 
368 50 51 118 
369 325 444 538 
370 554 477 556 
371 480 475 481 
372 131 40 462 
373 400 399 401 
374 490 248 493 
375 594 376 630 
376 407 412 485 
377 444 327 503 
378 351 418 473 
379 449 450 451 
380 83 138 505 
381 385 384 399 
382 315 439 513 
383 288 351 473 
384 547 115 564 
385 300 475 480 
386 188 186 532 
387 138 84 472 
388 461 385 583 
389 378 348 397 
390 477 456 556 
391 491 490 493 
392 236 178 555 
393 397 348 495 
394 351 417 418 
395 76 137 504 
396 70 71 587 
397 404 405 406 
398 118 448 449 
399 197 199 528 
400 385 399 400 
401 467 468 469 
402 334 562 563 
403 131 462 510 
404 178 230 555 
405 353 384 385 
406 133 108 478 
407 463 229 464 
408 400 401 402 
409 39 40 131 
410 300 474 475 
411 508 507 621 
412 463 465 466 
413 194 445 622 
414 481 475 482 
415 216 218 226 
416 512 319 532 
417 348 277 495 
418 41 42 229 
419 107 133 536 
420 14 308 526 
421 215 624 631 
422 549 245 559 
423 220 235 506 
424 267 221 501 
425 318 507 508 
426 256 288 300 
427 179 237 576 
428 229 42 471 
429 466 465 467 
430 514 360 524 
431 409 407 410 
432 186 512 532 
433 549 523 576 
434 211 206 212 
435 477 557 558 
436 418 417 419 
437 477 554 557 
438 211 212 216 
439 181 224 512 
440 169 231 238 
441 406 407 409 
442 231 256 480 
443 316 477 558 
444 208 206 211 
445 539 540 541 
446 84 85 472 
447 163 610 621 
448 320 323 533 
449 55 248 490 
450 305 284 307 
451 368 509 544 
452 165 168 169 
453 108 109 478 
454 344 435 436 
455 273 270 346 
456 137 539 541 
457 207 509 545 
458 196 260 544 
459 256 300 480 
460 205 204 206 
461 63 64 119 
462 259 238 284 
463 346 501 502 
464 260 209 261 
465 196 209 260 
466 353 385 461 
467 14 15 308 
468 562 334 564 
469 338 340 611 
470 431 410 432 
471 97 98 121 
472 509 368 545 
473 55 56 248 
474 120 75 504 
475 323 325 538 
476 327 329 503 
477 281 353 461 
478 226 240 242 
479 137 77 539 
480 533 323 538 
481 169 168 231 
482 74 75 120 
483 607 374 617 
484 358 283 372 
485 220 234 235 
486 293 310 311 
487 263 261 265 
488 40 41 462 
489 391 392 393 
490 285 284 305 
491 139 35 534 
492 184 183 185 
493 53 54 130 
494 83 84 138 
495 360 304 391 
496 406 411 577 
497 564 479 575 
498 51 52 447 
499 358 372 394 
500 262 261 263 
501 122 82 505 
502 403 402 404 
503 370 571 579 
504 476 162 507 
505 311 310 441 
506 207 189 509 
507 431 432 433 
508 216 226 232 
509 246 251 559 
510 185 183 186 
511 290 360 514 
512 31 116 551 
513 260 368 544 
514 546 157 595 
515 281 352 353 
516 557 153 558 
517 47 128 489 
518 185 186 187 
519 340 398 620 
520 334 547 564 
521 290 304 360 
522 106 107 536 
523 107 108 133 
524 270 267 501 
525 590 546 595 
526 152 180 181 
527 306 305 359 
528 274 344 548 
529 116 32 627 
530 405 402 457 
531 283 236 555 
532 187 188 189 
533 182 181 183 
534 187 189 207 
535 353 379 384 
536 289 179 576 
537 216 212 218 
538 562 564 575 
539 430 410 431 
540 245 549 576 
541 169 238 259 
542 159 158 160 
543 152 150 180 
544 260 261 262 
545 346 502 623 
546 253 258 290 
547 534 114 535 
548 115 27 543 
549 196 197 209 
550 271 273 569 
551 539 111 540 
552 290 302 304 
553 314 313 315 
554 346 270 501 
555 81 82 122 
556 54 55 490 
557 449 448 450 
558 404 406 577 
559 143 334 563 
560 173 174 560 
561 411 497 498 
562 409 410 430 
563 155 158 159 
564 149 153 557 
565 82 83 505 
566 206 204 617 
567 76 77 137 
568 174 292 293 
569 546 590 598 
570 571 371 579 
571 151 150 152 
572 329 331 333 
573 325 327 444 
574 245 246 559 
575 293 292 310 
576 312 311 313 
577 189 190 191 
578 189 191 509 
579 319 320 533 
580 155 159 558 
581 36 114 534 
582 160 161 163 
583 154 151 531 
584 333 331 345 
585 251 252 253 
586 253 290 514 
587 333 373 445 
588 203 202 204 
589 153 154 155 
590 193 196 544 
591 294 180 561 
592 231 239 256 
593 180 150 561 
594 155 157 158 
595 515 514 524 
596 187 207 530 
597 13 14 526 
598 386 387 388 
599 45 46 291 
600 287 253 514 
601 145 143 563 
602 224 295 319 
603 183 181 512 
604 75 76 504 
605 341 374 614 
606 36 37 114 
607 181 180 224 
608 159 160 162 
609 214 220 506 
610 104 105 127 
611 516 517 518 
612 271 270 273 
613 554 147 557 
614 400 402 403 
615 209 197 528 
616 78 111 539 
617 532 319 533 
618 227 338 570 
619 230 608 613 
620 77 78 539 
621 34 35 139 
622 334 141 547 
623 259 284 285 
624 333 345 373 
625 187 186 188 
626 532 533 605 
627 391 304 392 
628 149 151 153 
629 264 263 276 
630 153 155 558 
631 237 245 576 
632 174 172 292 
633 550 30 551 
634 518 519 520 
635 562 561 563 
636 28 140 543 
637 302 364 542 
638 459 408 460 
639 292 172 556 
640 140 29 550 
641 287 514 515 
642 319 295 320 
643 10 11 129 
644 163 164 165 
645 253 252 258 
646 293 311 312 
647 329 333 503 
648 518 517 519 
649 134 13 526 
650 159 316 558 
651 189 188 190 
652 320 322 323 
653 516 549 559 
654 518 523 549 
655 323 324 325 
656 170 554 556 
657 152 181 182 
658 316 162 476 
659 26 27 115 
660 28 29 140 
661 516 515 517 
662 372 283 555 
663 509 191 544 
664 30 31 551 
665 31 32 116 
666 165 166 168 
667 191 193 544 
668 518 520 523 
669 35 36 534 
670 176 173 560 
671 185 187 530 
672 353 352 379 
673 372 555 613 
674 456 292 556 
675 173 172 174 
676 273 346 632 
677 230 176 560 
678 610 508 621 
679 71 113 587 
680 251 253 287 
681 269 267 270 
682 344 436 548 
683 333 445 503 
684 156 146 170 
685 290 258 302 
686 377 337 422 
687 294 561 562 
688 149 148 150 
689 285 305 306 
690 148 145 563 
691 171 170 172 
692 221 185 530 
693 403 404 408 
694 347 277 348 
695 516 518 549 
696 256 280 288 
697 29 30 550 
698 27 28 543 
699 364 303 386 
700 160 158 161 
701 172 170 556 
702 201 203 210 
703 355 282 356 
704 141 25 547 
705 182 183 184 
706 384 379 421 
707 78 79 111 
708 191 192 193 
709 26 115 547 
710 153 151 154 
711 144 146 156 
712 23 24 125 
713 325 326 327 
714 246 250 251 
715 226 218 240 
716 170 146 554 
717 156 170 171 
718 329 330 331 
719 150 148 561 
720 460 408 577 
721 178 176 230 
722 251 287 559 
723 5 141 142 
724 143 141 334 
725 151 152 531 
726 142 143 144 
727 323 322 324 
728 451 450 455 
729 157 154 602 
730 519 517 521 
731 356 282 569 
732 191 190 192 
733 224 294 295 
734 147 145 148 
735 288 350 351 
736 237 244 245 
737 287 516 559 
738 184 185 221 
739 100 101 123 
740 144 145 146 
741 228 167 296 
742 243 236 283 
743 171 172 173 
744 147 149 557 
745 287 515 516 
746 344 365 435 
747 223 70 587 
748 272 371 571 
749 331 330 332 
750 274 343 344 
751 5 25 141 
752 299 283 358 
753 320 321 322 
754 142 141 143 
755 310 292 456 
756 25 26 547 
757 272 335 371 
758 147 148 149 
759 325 324 326 
760 193 195 196 
761 327 328 329 
762 341 297 374 
763 261 209 527 
764 320 295 321 
765 245 244 246 
766 202 200 215 
767 149 150 151 
768 260 262 368 
769 146 147 554 
770 579 296 590 
771 282 271 569 
772 224 180 294 
773 144 156 553 
774 374 297 603 
775 251 250 252 
776 451 455 487 
777 262 263 264 
778 142 144 553 
779 155 154 157 
780 228 296 565 
781 302 303 364 
782 233 219 255 
783 144 143 145 
784 561 148 563 
785 327 326 328 
786 355 356 381 
787 312 313 314 
788 12 13 134 
789 412 405 457 
790 163 165 610 
791 227 278 338 
792 269 270 271 
793 434 433 443 
794 338 339 340 
795 146 145 147 
796 119 64 537 
797 467 469 470 
798 431 433 434 
799 304 302 542 
800 374 607 614 
801 329 328 330 
802 577 411 619 
803 265 261 527 
804 159 162 316 
805 186 183 512 
806 328 552 606 
807 293 312 586 
808 351 416 417 
809 332 366 442 
810 193 192 194 
811 231 168 239 
812 264 276 277 
813 340 380 398 
814 446 321 479 
815 565 371 567 
816 565 296 579 
817 369 268 370 
818 163 161 164 
819 169 259 610 
820 377 422 427 
821 20 21 124 
822 560 174 586 
823 370 268 571 
824 322 321 446 
825 266 268 369 
826 279 228 565 
827 12 134 574 
828 386 303 387 
829 5 142 361 
830 406 409 411 
831 479 321 575 
832 295 294 575 
833 464 229 471 
834 298 375 376 
835 454 451 487 
836 332 330 366 
837 201 200 202 
838 342 337 377 
839 294 562 575 
840 158 157 546 
841 281 286 352 
842 302 258 303 
843 67 68 112 
844 175 173 176 
845 306 359 437 
846 321 295 575 
847 312 336 586 
848 371 335 567 
849 237 243 244 
850 336 314 337 
851 370 579 590 
852 442 366 525 
853 152 182 531 
854 326 324 367 
855 94 95 117 
856 371 565 579 
857 266 267 268 
858 11 12 574 
859 175 177 578 
860 19 20 568 
861 266 221 267 
862 193 194 195 
863 171 173 175 
864 192 190 217 
865 298 341 375 
866 52 53 616 
867 154 531 602 
868 165 164 166 
869 20 124 568 
870 269 271 272 
871 268 267 269 
872 361 142 553 
873 272 271 282 
874 174 293 586 
875 278 228 279 
876 268 269 571 
877 272 282 335 
878 175 176 177 
879 392 304 542 
880 458 408 459 
881 279 567 589 
882 203 204 205 
883 177 179 289 
884 349 348 378 
885 196 195 197 
886 199 198 200 
887 553 156 580 
888 388 389 390 
889 230 560 608 
890 591 369 602 
891 411 498 619 
892 338 278 339 
893 279 565 567 
894 298 297 341 
895 269 272 571 
896 336 337 342 
897 227 167 228 
898 291 46 489 
899 156 171 580 
900 385 400 583 
901 246 249 250 
902 595 157 602 
903 208 211 213 
904 335 355 357 
905 177 289 578 
906 177 176 178 
907 403 408 458 
908 569 273 633 
909 243 283 299 
910 252 250 254 
911 199 200 201 
912 408 404 577 
913 324 322 581 
914 344 343 365 
915 60 61 132 
916 335 282 355 
917 274 275 343 
918 205 206 208 
919 335 357 567 
920 161 158 546 
921 166 227 570 
922 234 257 281 
923 312 314 336 
924 275 241 297 
925 435 365 582 
926 227 228 278 
927 296 167 598 
928 275 297 298 
929 197 198 199 
930 322 446 581 
931 166 167 227 
932 567 357 589 
933 340 339 380 
934 608 342 613 
935 168 166 570 
936 179 236 237 
937 624 373 631 
938 184 221 266 
939 197 195 198 
940 256 239 280 
941 240 241 274 
942 114 37 638 
943 237 236 243 
944 258 252 584 
945 367 324 581 
946 380 382 420 
947 188 532 605 
948 437 359 438 
949 266 369 591 
950 118 449 500 
951 527 209 528 
952 202 215 607 
953 303 258 584 
954 380 339 382 
955 285 306 318 
956 194 192 585 
957 166 164 167 
958 298 376 599 
959 201 202 203 
960 233 255 596 
961 379 352 566 
962 531 591 602 
963 177 178 179 
964 65 222 537 
965 171 175 580 
966 246 244 249 
967 162 160 621 
968 252 254 584 
969 330 328 606 
970 274 241 275 
971 545 368 604 
972 59 60 592 
973 498 529 619 
974 299 358 413 
975 179 178 236 
976 388 387 389 
977 192 217 585 
978 175 578 580 
979 387 303 584 
980 288 280 350 
981 68 69 597 
982 91 92 126 
983 369 370 595 
984 204 202 607 
985 220 233 234 
986 400 403 583 
987 244 243 601 
988 278 279 588 
989 214 219 220 
990 403 458 583 
991 351 350 416 
992 368 262 604 
993 190 188 605 
994 317 277 347 
995 239 168 570 
996 184 266 591 
997 531 182 591 
998 90 91 593 
999 588 279 589 
1000 275 298 599 
1001 240 218 241 
1002 182 184 591 
1003 352 286 354 
1004 264 277 317 
1005 347 348 349 
1006 535 114 637 
1007 58 59 362 
1008 370 590 595 
1009 281 257 286 
1010 262 264 604 
1011 214 213 219 
1012 343 275 599 
1013 352 354 566 
1014 606 116 627 
1015 165 169 610 
1016 339 278 588 
1017 332 442 630 
1018 89 90 225 
1019 620 398 625 
1020 299 413 414 
1021 382 339 588 
1022 112 68 597 
1023 208 213 214 
1024 217 190 605 
1025 342 377 618 
1026 249 244 601 
1027 414 423 424 
1028 570 338 611 
1029 611 340 620 
1030 164 161 598 
1031 167 164 598 
1032 60 132 592 
1033 161 546 598 
1034 220 219 233 
1035 372 613 618 
1036 297 241 603 
1037 395 389 396 
1038 366 330 606 
1039 555 230 613 
1040 234 233 257 
1041 243 299 601 
1042 69 70 223 
1043 286 257 301 
1044 369 595 602 
1045 8 9 247 
1046 218 212 603 
1047 607 215 614 
1048 356 569 635 
1049 374 603 617 
1050 18 19 135 
1051 336 342 608 
1052 349 378 383 
1053 414 413 423 
1054 560 586 608 
1055 390 389 395 
1056 586 336 608 
1057 318 306 612 
1058 383 378 415 
1059 264 317 604 
1060 241 218 603 
1061 460 210 634 
1062 306 437 612 
1063 346 623 632 
1064 500 453 629 
1065 299 414 601 
1066 448 452 486 
1067 195 194 622 
1068 629 453 636 
1069 387 584 609 
1070 91 126 593 
1071 47 48 128 
1072 212 206 617 
1073 450 448 486 
1074 613 342 618 
1075 331 332 626 
1076 362 59 592 
1077 215 200 624 
1078 66 67 572 
1079 584 254 609 
1080 273 632 633 
1081 381 356 615 
1082 129 11 574 
1083 239 570 611 
1084 396 389 609 
1085 301 257 596 
1086 257 233 596 
1087 280 239 611 
1088 225 90 593 
1089 69 223 597 
1090 160 163 621 
1091 460 577 619 
1092 53 130 616 
1093 389 387 609 
1094 637 114 638 
1095 67 112 572 
1096 9 10 600 
1097 10 129 600 
1098 603 212 617 
1099 65 66 222 
1100 448 447 452 
1101 135 19 568 
1102 366 606 627 
1103 198 195 622 
1104 118 447 448 
1105 50 118 500 
1106 350 280 620 
1107 280 611 620 
1108 198 622 624 
1109 569 633 635 
1110 48 49 629 
1111 626 332 630 
1112 502 545 623 
1113 545 604 623 
1114 49 50 500 
1115 200 198 624 
1116 247 9 600 
1117 345 331 626 
1118 350 620 625 
1119 525 366 627 
1120 375 341 628 
1121 604 317 623 
1122 416 350 625 
1123 345 626 628 
1124 373 345 631 
1125 376 375 630 
1126 345 628 631 
1127 222 66 572 
1128 341 614 628 
1129 128 48 629 
1130 626 375 628 
1131 623 317 632 
1132 614 215 631 
1133 628 614 631 
1134 317 347 632 
1135 375 626 630 
1136 632 347 633 
1137 49 500 629 
1138 118 51 447 
1139 343 599 637 
1140 347 349 633 
1141 599 535 637 
1142 459 460 634 
1143 573 459 634 
1144 453 454 636 
1145 633 349 635 
1146 349 383 635 
1147 365 343 637 
1148 365 637 638 
1149 582 365 638 
1150 113 397 708 
1151 309 419 697 
1152 504 381 710 
1153 615 120 710 
1154 540 589 709 
1155 398 122 707 
1156 399 119 704 
1157 421 62 715 
1158 566 132 717 
1159 396 609 639 
1160 609 254 639 
1161 656 484 721 
1162 657 391 722 
1163 242 470 640 
1164 232 226 640 
1165 249 429 641 
1166 250 249 641 
1167 639 254 641 
1168 92 93 642 
1169 226 242 640 
1170 520 522 645 
1171 522 361 644 
1172 254 250 641 
1173 301 596 643 
1174 486 452 643 
1175 488 232 723 
1176 455 488 723 
1177 653 419 655 
1178 523 520 645 
1179 361 553 644 
1180 580 578 644 
1181 578 289 645 
1182 494 248 646 
1183 56 57 646 
1184 44 45 647 
1185 7 8 648 
1186 126 92 642 
1187 117 656 721 
1188 135 657 722 
1189 450 486 650 
1190 124 521 664 
1191 286 301 652 
1192 88 89 653 
1193 642 93 661 
1194 425 127 677 
1195 359 484 656 
1196 440 438 656 
1197 360 391 657 
1198 452 492 643 
1199 225 593 663 
1200 289 523 645 
1201 553 580 644 
1202 248 56 646 
1203 45 291 647 
1204 8 247 648 
1205 358 394 659 
1206 394 618 660 
1207 377 427 660 
1208 650 255 675 
1209 483 642 661 
1210 94 117 661 
1211 18 135 662 
1212 16 17 649 
1213 473 418 663 
1214 521 517 664 
1215 515 524 664 
1216 470 469 692 
1217 121 98 665 
1218 104 127 667 
1219 136 103 667 
1220 23 125 666 
1221 519 521 666 
1222 465 464 674 
1223 219 213 675 
1224 482 475 676 
1225 106 536 677 
1226 127 105 677 
1227 489 128 678 
1228 393 649 662 
1229 378 397 680 
1230 504 137 687 
1231 399 384 684 
1232 61 62 683 
1233 588 589 681 
1234 398 380 685 
1235 615 383 686 
1236 395 396 658 
1237 455 450 650 
1238 1 7 688 
1239 110 1 688 
1240 43 4 689 
1241 4 44 689 
1242 24 5 690 
1243 5 361 690 
1244 57 3 691 
1245 3 58 691 
1246 213 211 695 
1247 216 232 695 
1248 74 120 711 
1249 113 72 713 
1250 63 119 715 
1251 81 122 714 
1252 111 79 716 
1253 355 381 712 
1254 421 379 717 
1255 121 439 679 
1256 2 16 693 
1257 15 2 693 
1258 86 6 694 
1259 6 87 694 
1260 301 643 720 
1261 499 136 659 
1262 354 286 652 
1263 649 17 662 
1264 89 225 653 
1265 478 363 654 
1266 87 88 655 
1267 536 133 658 
1268 438 359 656 
1269 524 360 657 
1270 135 568 657 
1271 97 121 679 
1272 486 643 718 
1273 643 492 720 
1274 396 428 658 
1275 454 487 692 
1276 413 358 659 
1277 618 377 660 
1278 99 427 665 
1279 636 469 678 
1280 440 96 679 
1281 487 640 692 
1282 643 596 718 
1283 232 487 723 
1284 93 94 661 
1285 17 18 662 
1286 469 468 678 
1287 96 97 679 
1288 474 473 663 
1289 680 113 713 
1290 682 111 716 
1291 683 421 717 
1292 119 684 715 
1293 122 685 714 
1294 120 686 711 
1295 381 687 712 
1296 517 515 664 
1297 427 422 665 
1298 671 129 673 
1299 386 671 673 
1300 526 308 669 
1301 98 99 665 
1302 134 526 670 
1303 574 672 673 
1304 526 669 670 
1305 386 388 671 
1306 574 134 672 
1307 134 670 672 
1308 129 574 673 
1309 22 23 666 
1310 103 104 667 
1311 388 390 668 
1312 393 392 669 
1313 669 392 670 
1314 392 542 670 
1315 672 364 673 
1316 542 364 672 
1317 670 542 672 
1318 364 386 673 
1319 388 668 671 
1320 247 600 668 
1321 600 129 671 
1322 668 600 671 
1323 361 522 690 
1324 522 125 690 
1325 650 486 718 
1326 468 465 674 
1327 255 219 675 
1328 475 474 676 
1329 105 106 677 
1330 439 440 679 
1331 128 636 678 
1332 652 301 720 
1333 648 247 719 
1334 487 455 723 
1335 415 378 680 
1336 382 681 682 
1337 420 382 682 
1338 382 588 681 
1339 132 61 683 
1340 384 421 684 
1341 380 420 685 
1342 137 541 687 
1343 383 415 686 
1344 646 57 691 
1345 44 647 689 
1346 7 648 688 
1347 309 86 694 
1348 308 15 693 
1349 640 470 692 
1350 471 43 689 
1351 363 110 688 
1352 125 24 690 
1353 58 362 691 
1354 661 117 721 
1355 662 135 722 
1356 211 216 695 
1357 493 494 696 
1358 711 415 713 
1359 714 420 716 
1360 541 709 712 
1361 397 443 708 
1362 432 485 702 
1363 433 432 705 
1364 443 433 706 
1365 485 412 701 
1366 443 706 708 
1367 537 699 704 
1368 699 222 700 
1369 472 309 697 
1370 457 401 699 
1371 120 504 710 
1372 699 401 704 
1373 541 540 709 
1374 119 537 704 
1375 505 138 703 
1376 122 505 707 
1377 432 702 705 
1378 138 472 698 
1379 537 222 699 
1380 433 705 706 
1381 485 701 702 
1382 457 699 700 
1383 419 417 697 
1384 697 417 698 
1385 401 399 704 
1386 412 457 700 
1387 417 416 698 
1388 472 697 698 
1389 222 572 700 
1390 698 416 703 
1391 112 597 702 
1392 572 112 701 
1393 138 698 703 
1394 701 112 702 
1395 706 587 708 
1396 702 597 705 
1397 223 587 706 
1398 597 223 705 
1399 416 625 703 
1400 587 113 708 
1401 589 357 709 
1402 705 223 706 
1403 381 615 710 
1404 625 398 707 
1405 505 703 707 
1406 703 625 707 
1407 700 572 701 
1408 412 700 701 
1409 709 357 712 
1410 73 74 711 
1411 73 711 713 
1412 72 73 713 
1413 357 355 712 
1414 80 81 714 
1415 80 714 716 
1416 62 63 715 
1417 79 80 716 
1418 379 566 717 
1419 596 255 718 
1420 492 491 720 
1421 655 309 694 
1422 255 650 718 
1423 391 393 722 
1424 484 483 721 
1425 362 646 691 
1426 647 471 689 
1427 648 363 688 
1428 649 308 693 
1429 491 652 720 
1430 16 649 693 
1431 494 651 696 
1432 87 655 694 
1433 390 654 719 
1434 247 668 719 
1435 668 390 719 
1436 393 662 722 
1437 483 661 721 
1438 415 680 713 
1439 420 682 716 
1440 132 683 717 
1441 686 415 711 
1442 684 421 715 
1443 685 420 714 
1444 687 541 712 
$EndElements
